<?xml version="1.0" encoding="UTF-8" standalone="no"?>
<!-- Created with Inkscape (http://www.inkscape.org/) -->

<svg
   xmlns:dc="http://purl.org/dc/elements/1.1/"
   xmlns:cc="http://creativecommons.org/ns#"
   xmlns:rdf="http://www.w3.org/1999/02/22-rdf-syntax-ns#"
   xmlns:svg="http://www.w3.org/2000/svg"
   xmlns="http://www.w3.org/2000/svg"
   xmlns:xlink="http://www.w3.org/1999/xlink"
   xmlns:sodipodi="http://sodipodi.sourceforge.net/DTD/sodipodi-0.dtd"
   xmlns:inkscape="http://www.inkscape.org/namespaces/inkscape"
   width="1052.36"
   height="744.09003"
   id="svg2"
   version="1.1"
   inkscape:version="0.47 r22583"
   sodipodi:docname="back.svg">
  <defs
     id="defs4">
    <inkscape:path-effect
       effect="skeletal"
       id="path-effect3943"
       is_visible="true"
       pattern="M 0,0 0,10 10,5 z"
       copytype="single_stretched"
       prop_scale="1"
       scale_y_rel="false"
       spacing="0"
       normal_offset="0"
       tang_offset="0"
       prop_units="false"
       vertical_pattern="false"
       fuse_tolerance="0" />
    <inkscape:path-effect
       effect="spiro"
       id="path-effect3941"
       is_visible="true" />
    <inkscape:path-effect
       is_visible="true"
       id="path-effect3686"
       effect="spiro" />
    <inkscape:path-effect
       effect="spiro"
       id="path-effect3684"
       is_visible="true" />
    <inkscape:path-effect
       pattern-nodetypes="cccc"
       fuse_tolerance="0"
       vertical_pattern="false"
       prop_units="false"
       tang_offset="0"
       normal_offset="0"
       spacing="0"
       scale_y_rel="false"
       prop_scale="1"
       copytype="single_stretched"
       pattern="m 145.00137,325.51873 -166.57937,-7.50055 0,13.85117 166.57937,-6.35062 z"
       is_visible="true"
       id="path-effect3682"
       effect="skeletal" />
    <inkscape:path-effect
       is_visible="true"
       id="path-effect3680"
       effect="spiro" />
    <inkscape:path-effect
       effect="skeletal"
       id="path-effect3678"
       is_visible="true"
       pattern="m 17.001375,327.51873 -37.272889,-9.50069 0.693785,17.85131 36.579104,-8.35062 z"
       copytype="single_stretched"
       prop_scale="1"
       scale_y_rel="false"
       spacing="0"
       normal_offset="0"
       tang_offset="0"
       prop_units="false"
       vertical_pattern="false"
       fuse_tolerance="0"
       pattern-nodetypes="cccc" />
    <inkscape:path-effect
       effect="spiro"
       id="path-effect3676"
       is_visible="true" />
    <inkscape:path-effect
       is_visible="true"
       id="path-effect3674"
       effect="spiro" />
    <inkscape:path-effect
       effect="spiro"
       id="path-effect3672"
       is_visible="true" />
    <linearGradient
       id="linearGradient3656">
      <stop
         style="stop-color:#007394;stop-opacity:1;"
         offset="0"
         id="stop3658" />
      <stop
         style="stop-color:#003e50;stop-opacity:1;"
         offset="1"
         id="stop3660" />
    </linearGradient>
    <inkscape:path-effect
       effect="skeletal"
       id="path-effect3644"
       is_visible="true"
       pattern="M 0,3 0,7 10,5 0,3 z"
       copytype="single_stretched"
       prop_scale="1"
       scale_y_rel="false"
       spacing="0"
       normal_offset="0"
       tang_offset="0"
       prop_units="false"
       vertical_pattern="false"
       fuse_tolerance="0"
       pattern-nodetypes="cccc" />
    <inkscape:path-effect
       effect="spiro"
       id="path-effect3642"
       is_visible="true" />
    <inkscape:path-effect
       is_visible="true"
       id="path-effect3638"
       effect="spiro" />
    <inkscape:path-effect
       effect="spiro"
       id="path-effect3636"
       is_visible="true" />
    <inkscape:path-effect
       is_visible="true"
       id="path-effect3634"
       effect="spiro" />
    <inkscape:path-effect
       effect="spiro"
       id="path-effect3632"
       is_visible="true" />
    <inkscape:path-effect
       is_visible="true"
       id="path-effect3630"
       effect="spiro" />
    <inkscape:path-effect
       effect="spiro"
       id="path-effect3628"
       is_visible="true" />
    <inkscape:path-effect
       is_visible="true"
       id="path-effect3626"
       effect="spiro" />
    <inkscape:path-effect
       effect="spiro"
       id="path-effect3624"
       is_visible="true" />
    <inkscape:path-effect
       is_visible="true"
       id="path-effect3622"
       effect="spiro" />
    <inkscape:path-effect
       effect="spiro"
       id="path-effect3620"
       is_visible="true" />
    <inkscape:path-effect
       is_visible="true"
       id="path-effect3618"
       effect="spiro" />
    <inkscape:path-effect
       pattern-nodetypes="cccc"
       fuse_tolerance="0"
       vertical_pattern="false"
       prop_units="false"
       tang_offset="0"
       normal_offset="0"
       spacing="0"
       scale_y_rel="false"
       prop_scale="1"
       copytype="single_stretched"
       pattern="m 17.001375,327.51873 -37.272889,-9.50069 0.693785,17.85131 36.579104,-8.35062 z"
       is_visible="true"
       id="path-effect3616"
       effect="skeletal" />
    <inkscape:path-effect
       effect="spiro"
       id="path-effect3614"
       is_visible="true" />
    <inkscape:path-effect
       is_visible="true"
       id="path-effect3612"
       effect="spiro" />
    <inkscape:path-effect
       effect="spiro"
       id="path-effect3610"
       is_visible="true" />
    <inkscape:path-effect
       is_visible="true"
       id="path-effect3608"
       effect="spiro" />
    <linearGradient
       id="linearGradient3598">
      <stop
         style="stop-color:#0087a6;stop-opacity:1;"
         offset="0"
         id="stop3600" />
      <stop
         style="stop-color:#ffffff;stop-opacity:0;"
         offset="1"
         id="stop3602" />
    </linearGradient>
    <inkscape:path-effect
       effect="skeletal"
       id="path-effect2822"
       is_visible="true"
       pattern="m 15.001375,325.51873 -37.272889,-9.50069 0.693785,17.85131 36.579104,-8.35062 z"
       copytype="single_stretched"
       prop_scale="1"
       scale_y_rel="false"
       spacing="0"
       normal_offset="0"
       tang_offset="0"
       prop_units="false"
       vertical_pattern="false"
       fuse_tolerance="0"
       pattern-nodetypes="cccc" />
    <inkscape:path-effect
       effect="spiro"
       id="path-effect2820"
       is_visible="true" />
    <inkscape:perspective
       sodipodi:type="inkscape:persp3d"
       inkscape:vp_x="0 : 526.18109 : 1"
       inkscape:vp_y="0 : 1000 : 0"
       inkscape:vp_z="744.09448 : 526.18109 : 1"
       inkscape:persp3d-origin="372.04724 : 350.78739 : 1"
       id="perspective10" />
    <radialGradient
       inkscape:collect="always"
       xlink:href="#linearGradient3656"
       id="radialGradient3662"
       cx="526.15643"
       cy="682.61505"
       fx="526.15643"
       fy="682.61505"
       r="529.60663"
       gradientTransform="matrix(0.99352986,0,0,0.7024931,3.4278773,200.7848)"
       gradientUnits="userSpaceOnUse" />
    <inkscape:perspective
       id="perspective3726"
       inkscape:persp3d-origin="0.5 : 0.33333333 : 1"
       inkscape:vp_z="1 : 0.5 : 1"
       inkscape:vp_y="0 : 1000 : 0"
       inkscape:vp_x="0 : 0.5 : 1"
       sodipodi:type="inkscape:persp3d" />
    <inkscape:perspective
       id="perspective3754"
       inkscape:persp3d-origin="0.5 : 0.33333333 : 1"
       inkscape:vp_z="1 : 0.5 : 1"
       inkscape:vp_y="0 : 1000 : 0"
       inkscape:vp_x="0 : 0.5 : 1"
       sodipodi:type="inkscape:persp3d" />
    <inkscape:perspective
       id="perspective3784"
       inkscape:persp3d-origin="0.5 : 0.33333333 : 1"
       inkscape:vp_z="1 : 0.5 : 1"
       inkscape:vp_y="0 : 1000 : 0"
       inkscape:vp_x="0 : 0.5 : 1"
       sodipodi:type="inkscape:persp3d" />
    <inkscape:perspective
       id="perspective3806"
       inkscape:persp3d-origin="0.5 : 0.33333333 : 1"
       inkscape:vp_z="1 : 0.5 : 1"
       inkscape:vp_y="0 : 1000 : 0"
       inkscape:vp_x="0 : 0.5 : 1"
       sodipodi:type="inkscape:persp3d" />
    <inkscape:perspective
       id="perspective3840"
       inkscape:persp3d-origin="0.5 : 0.33333333 : 1"
       inkscape:vp_z="1 : 0.5 : 1"
       inkscape:vp_y="0 : 1000 : 0"
       inkscape:vp_x="0 : 0.5 : 1"
       sodipodi:type="inkscape:persp3d" />
    <inkscape:perspective
       id="perspective3874"
       inkscape:persp3d-origin="0.5 : 0.33333333 : 1"
       inkscape:vp_z="1 : 0.5 : 1"
       inkscape:vp_y="0 : 1000 : 0"
       inkscape:vp_x="0 : 0.5 : 1"
       sodipodi:type="inkscape:persp3d" />
    <inkscape:perspective
       id="perspective3899"
       inkscape:persp3d-origin="0.5 : 0.33333333 : 1"
       inkscape:vp_z="1 : 0.5 : 1"
       inkscape:vp_y="0 : 1000 : 0"
       inkscape:vp_x="0 : 0.5 : 1"
       sodipodi:type="inkscape:persp3d" />
    <inkscape:perspective
       id="perspective3925"
       inkscape:persp3d-origin="0.5 : 0.33333333 : 1"
       inkscape:vp_z="1 : 0.5 : 1"
       inkscape:vp_y="0 : 1000 : 0"
       inkscape:vp_x="0 : 0.5 : 1"
       sodipodi:type="inkscape:persp3d" />
    <inkscape:perspective
       id="perspective3010"
       inkscape:persp3d-origin="0.5 : 0.33333333 : 1"
       inkscape:vp_z="1 : 0.5 : 1"
       inkscape:vp_y="0 : 1000 : 0"
       inkscape:vp_x="0 : 0.5 : 1"
       sodipodi:type="inkscape:persp3d" />
    <inkscape:perspective
       id="perspective3686"
       inkscape:persp3d-origin="0.5 : 0.33333333 : 1"
       inkscape:vp_z="1 : 0.5 : 1"
       inkscape:vp_y="0 : 1000 : 0"
       inkscape:vp_x="0 : 0.5 : 1"
       sodipodi:type="inkscape:persp3d" />
    <radialGradient
       inkscape:collect="always"
       xlink:href="#linearGradient3656-7"
       id="radialGradient3662-4"
       cx="526.15643"
       cy="682.61505"
       fx="526.15643"
       fy="682.61505"
       r="529.60663"
       gradientTransform="matrix(1.0956008,0,0,0.77466422,-50.277425,151.51971)"
       gradientUnits="userSpaceOnUse" />
    <linearGradient
       id="linearGradient3656-7">
      <stop
         style="stop-color:#007394;stop-opacity:1;"
         offset="0"
         id="stop3658-8" />
      <stop
         style="stop-color:#003e50;stop-opacity:1;"
         offset="1"
         id="stop3660-4" />
    </linearGradient>
    <radialGradient
       r="529.60663"
       fy="682.61505"
       fx="526.15643"
       cy="682.61505"
       cx="526.15643"
       gradientTransform="matrix(1.0956008,0,0,0.77466422,-224.53638,4.8836975)"
       gradientUnits="userSpaceOnUse"
       id="radialGradient3695"
       xlink:href="#linearGradient3656-7"
       inkscape:collect="always" />
  </defs>
  <sodipodi:namedview
     id="base"
     pagecolor="#ffffff"
     bordercolor="#666666"
     borderopacity="1.0"
     inkscape:pageopacity="0.0"
     inkscape:pageshadow="2"
     inkscape:zoom="0.86951323"
     inkscape:cx="526.18315"
     inkscape:cy="372.04724"
     inkscape:document-units="px"
     inkscape:current-layer="layer1"
     showgrid="false"
     borderlayer="true"
     inkscape:window-width="1440"
     inkscape:window-height="884"
     inkscape:window-x="-1"
     inkscape:window-y="-10"
     inkscape:window-maximized="1"
     inkscape:snap-nodes="false"
     inkscape:object-paths="true" />
  <metadata
     id="metadata7">
    <rdf:RDF>
      <cc:Work
         rdf:about="">
        <dc:format>image/svg+xml</dc:format>
        <dc:type
           rdf:resource="http://purl.org/dc/dcmitype/StillImage" />
        <dc:title />
      </cc:Work>
    </rdf:RDF>
  </metadata>
  <g
     inkscape:label="Livello 1"
     inkscape:groupmode="layer"
     id="layer1"
     transform="translate(174.25896,-161.63618)">
    <rect
       style="fill:url(#radialGradient3695);fill-opacity:1;fill-rule:nonzero;stroke:none"
       id="rect3646"
       width="1052.36"
       height="744.09003"
       x="-174.25896"
       y="161.63618" />
  </g>
</svg>
