<?xml version="1.0" encoding="UTF-8" standalone="no"?>
<!-- Created with Inkscape (http://www.inkscape.org/) -->

<svg
   xmlns:dc="http://purl.org/dc/elements/1.1/"
   xmlns:cc="http://creativecommons.org/ns#"
   xmlns:rdf="http://www.w3.org/1999/02/22-rdf-syntax-ns#"
   xmlns:svg="http://www.w3.org/2000/svg"
   xmlns="http://www.w3.org/2000/svg"
   xmlns:sodipodi="http://sodipodi.sourceforge.net/DTD/sodipodi-0.dtd"
   xmlns:inkscape="http://www.inkscape.org/namespaces/inkscape"
   width="691.68066"
   height="294.035"
   id="svg3769"
   version="1.1"
   inkscape:version="0.47 r22583"
   sodipodi:docname="ricciolo-up2.svg">
  <defs
     id="defs3771">
    <inkscape:perspective
       sodipodi:type="inkscape:persp3d"
       inkscape:vp_x="0 : 526.18109 : 1"
       inkscape:vp_y="0 : 1000 : 0"
       inkscape:vp_z="744.09448 : 526.18109 : 1"
       inkscape:persp3d-origin="372.04724 : 350.78739 : 1"
       id="perspective3777" />
    <inkscape:perspective
       id="perspective3760"
       inkscape:persp3d-origin="0.5 : 0.33333333 : 1"
       inkscape:vp_z="1 : 0.5 : 1"
       inkscape:vp_y="0 : 1000 : 0"
       inkscape:vp_x="0 : 0.5 : 1"
       sodipodi:type="inkscape:persp3d" />
    <inkscape:path-effect
       is_visible="true"
       id="path-effect3686"
       effect="spiro" />
    <inkscape:path-effect
       pattern-nodetypes="cccc"
       fuse_tolerance="0"
       vertical_pattern="false"
       prop_units="false"
       tang_offset="0"
       normal_offset="0"
       spacing="0"
       scale_y_rel="false"
       prop_scale="1"
       copytype="single_stretched"
       pattern="m 145.00137,325.51873 -166.57937,-7.50055 0,13.85117 166.57937,-6.35062 z"
       is_visible="true"
       id="path-effect3682"
       effect="skeletal" />
    <inkscape:perspective
       id="perspective3714"
       inkscape:persp3d-origin="0.5 : 0.33333333 : 1"
       inkscape:vp_z="1 : 0.5 : 1"
       inkscape:vp_y="0 : 1000 : 0"
       inkscape:vp_x="0 : 0.5 : 1"
       sodipodi:type="inkscape:persp3d" />
    <inkscape:path-effect
       effect="spiro"
       id="path-effect2910"
       is_visible="true" />
    <inkscape:path-effect
       effect="skeletal"
       id="path-effect2912"
       is_visible="true"
       pattern="M 0,0 0,10 10,5 z"
       copytype="single_stretched"
       prop_scale="1"
       scale_y_rel="false"
       spacing="0"
       normal_offset="0"
       tang_offset="0"
       prop_units="false"
       vertical_pattern="false"
       fuse_tolerance="0" />
    <inkscape:path-effect
       effect="spiro"
       id="path-effect2922"
       is_visible="true" />
    <inkscape:path-effect
       effect="skeletal"
       id="path-effect2924"
       is_visible="true"
       pattern="M 87.00137,329.51873 -21.578,318.01818 l 0,13.85117 108.57937,-2.35062 z"
       copytype="single_stretched"
       prop_scale="1"
       scale_y_rel="false"
       spacing="0"
       normal_offset="0"
       tang_offset="0"
       prop_units="false"
       vertical_pattern="false"
       fuse_tolerance="0"
       pattern-nodetypes="cccc" />
    <inkscape:perspective
       id="perspective3868"
       inkscape:persp3d-origin="0.5 : 0.33333333 : 1"
       inkscape:vp_z="1 : 0.5 : 1"
       inkscape:vp_y="0 : 1000 : 0"
       inkscape:vp_x="0 : 0.5 : 1"
       sodipodi:type="inkscape:persp3d" />
    <inkscape:path-effect
       effect="spiro"
       id="path-effect3833"
       is_visible="true" />
    <inkscape:path-effect
       effect="skeletal"
       id="path-effect3835"
       is_visible="true"
       pattern="M 0,0 0,10 10,5 z"
       copytype="single_stretched"
       prop_scale="1"
       scale_y_rel="false"
       spacing="0"
       normal_offset="0"
       tang_offset="0"
       prop_units="false"
       vertical_pattern="false"
       fuse_tolerance="0" />
    <inkscape:path-effect
       is_visible="true"
       id="path-effect3850"
       effect="spiro" />
    <inkscape:path-effect
       effect="skeletal"
       id="path-effect2912-4"
       is_visible="true"
       pattern="M 0,0 0,10 10,5 z"
       copytype="single_stretched"
       prop_scale="1"
       scale_y_rel="false"
       spacing="0"
       normal_offset="0"
       tang_offset="0"
       prop_units="false"
       vertical_pattern="false"
       fuse_tolerance="0" />
    <inkscape:path-effect
       is_visible="true"
       id="path-effect3846"
       effect="spiro" />
    <inkscape:path-effect
       effect="skeletal"
       id="path-effect2924-7"
       is_visible="true"
       pattern="M 87.00137,329.51873 -21.578,318.01818 l 0,13.85117 108.57937,-2.35062 z"
       copytype="single_stretched"
       prop_scale="1"
       scale_y_rel="false"
       spacing="0"
       normal_offset="0"
       tang_offset="0"
       prop_units="false"
       vertical_pattern="false"
       fuse_tolerance="0"
       pattern-nodetypes="cccc" />
    <inkscape:perspective
       id="perspective2914"
       inkscape:persp3d-origin="0.5 : 0.33333333 : 1"
       inkscape:vp_z="1 : 0.5 : 1"
       inkscape:vp_y="0 : 1000 : 0"
       inkscape:vp_x="0 : 0.5 : 1"
       sodipodi:type="inkscape:persp3d" />
    <inkscape:path-effect
       effect="spiro"
       id="path-effect3833-4"
       is_visible="true" />
    <inkscape:path-effect
       effect="skeletal"
       id="path-effect3835-7"
       is_visible="true"
       pattern="M 0,0 0,10 10,5 z"
       copytype="single_stretched"
       prop_scale="1"
       scale_y_rel="false"
       spacing="0"
       normal_offset="0"
       tang_offset="0"
       prop_units="false"
       vertical_pattern="false"
       fuse_tolerance="0" />
    <inkscape:path-effect
       is_visible="true"
       id="path-effect3850-8"
       effect="spiro" />
    <inkscape:path-effect
       effect="skeletal"
       id="path-effect2912-45"
       is_visible="true"
       pattern="M 0,0 0,10 10,5 z"
       copytype="single_stretched"
       prop_scale="1"
       scale_y_rel="false"
       spacing="0"
       normal_offset="0"
       tang_offset="0"
       prop_units="false"
       vertical_pattern="false"
       fuse_tolerance="0" />
    <inkscape:path-effect
       is_visible="true"
       id="path-effect3846-0"
       effect="spiro" />
    <inkscape:path-effect
       effect="skeletal"
       id="path-effect2924-3"
       is_visible="true"
       pattern="M 87.00137,329.51873 -21.578,318.01818 l 0,13.85117 108.57937,-2.35062 z"
       copytype="single_stretched"
       prop_scale="1"
       scale_y_rel="false"
       spacing="0"
       normal_offset="0"
       tang_offset="0"
       prop_units="false"
       vertical_pattern="false"
       fuse_tolerance="0"
       pattern-nodetypes="cccc" />
    <inkscape:perspective
       id="perspective2978"
       inkscape:persp3d-origin="0.5 : 0.33333333 : 1"
       inkscape:vp_z="1 : 0.5 : 1"
       inkscape:vp_y="0 : 1000 : 0"
       inkscape:vp_x="0 : 0.5 : 1"
       sodipodi:type="inkscape:persp3d" />
    <inkscape:path-effect
       is_visible="true"
       id="path-effect2939"
       effect="spiro" />
    <inkscape:path-effect
       effect="skeletal"
       id="path-effect3835-4"
       is_visible="true"
       pattern="M 0,0 0,10 10,5 z"
       copytype="single_stretched"
       prop_scale="1"
       scale_y_rel="false"
       spacing="0"
       normal_offset="0"
       tang_offset="0"
       prop_units="false"
       vertical_pattern="false"
       fuse_tolerance="0" />
    <inkscape:path-effect
       effect="spiro"
       id="path-effect2936"
       is_visible="true" />
    <inkscape:path-effect
       effect="skeletal"
       id="path-effect2912-7"
       is_visible="true"
       pattern="M 0,0 0,10 10,5 z"
       copytype="single_stretched"
       prop_scale="1"
       scale_y_rel="false"
       spacing="0"
       normal_offset="0"
       tang_offset="0"
       prop_units="false"
       vertical_pattern="false"
       fuse_tolerance="0" />
    <inkscape:path-effect
       effect="spiro"
       id="path-effect2932"
       is_visible="true" />
    <inkscape:path-effect
       effect="skeletal"
       id="path-effect2924-8"
       is_visible="true"
       pattern="M 87.00137,329.51873 -21.578,318.01818 l 0,13.85117 108.57937,-2.35062 z"
       copytype="single_stretched"
       prop_scale="1"
       scale_y_rel="false"
       spacing="0"
       normal_offset="0"
       tang_offset="0"
       prop_units="false"
       vertical_pattern="false"
       fuse_tolerance="0"
       pattern-nodetypes="cccc" />
    <inkscape:path-effect
       effect="spiro"
       id="path-effect2974"
       is_visible="true" />
    <inkscape:path-effect
       effect="skeletal"
       id="path-effect2976"
       is_visible="true"
       pattern="m 0,309.27218 0,8 10,-4 -10,-4 z"
       copytype="single_stretched"
       prop_scale="1"
       scale_y_rel="false"
       spacing="0"
       normal_offset="0"
       tang_offset="0"
       prop_units="false"
       vertical_pattern="false"
       fuse_tolerance="0"
       pattern-nodetypes="cccc" />
  </defs>
  <sodipodi:namedview
     id="base"
     pagecolor="#ffffff"
     bordercolor="#666666"
     borderopacity="1.0"
     inkscape:pageopacity="0.0"
     inkscape:pageshadow="2"
     inkscape:zoom="1.961888"
     inkscape:cx="345.84033"
     inkscape:cy="147.0175"
     inkscape:document-units="px"
     inkscape:current-layer="layer1"
     showgrid="false"
     inkscape:window-width="1440"
     inkscape:window-height="884"
     inkscape:window-x="-1"
     inkscape:window-y="-10"
     inkscape:window-maximized="1" />
  <metadata
     id="metadata3774">
    <rdf:RDF>
      <cc:Work
         rdf:about="">
        <dc:format>image/svg+xml</dc:format>
        <dc:type
           rdf:resource="http://purl.org/dc/dcmitype/StillImage" />
        <dc:title />
      </cc:Work>
    </rdf:RDF>
  </metadata>
  <g
     inkscape:label="Livello 1"
     inkscape:groupmode="layer"
     id="layer1"
     transform="translate(424.83693,-204.65983)">
    <g
       transform="translate(-403.06908,-226.76785)"
       id="g2941">
      <path
         sodipodi:nodetypes="czz"
         inkscape:original-d="m 3.4501857,659.04105 c 0,0 90.7222503,-86.79737 112.7060643,-82.80446 21.98382,3.99291 238.0628,87.40471 238.0628,87.40471"
         inkscape:path-effect="#path-effect2939;#path-effect3835"
         id="path3831"
         d="m -0.68098537,656.22442 8.26234217,5.63326 C 33.203526,623.24494 72.552608,593.50244 117.10988,579.37632 c 10e-6,-10e-6 2e-5,-10e-6 2e-5,-10e-6 42.53519,-13.49583 89.74007,-12.78302 132.15858,2.21089 0,0 0,0 1e-5,0 42.42017,14.98942 79.93371,44.22089 104.95056,82.0541 -24.09728,-38.42545 -61.09138,-68.8616 -103.81963,-85.13441 -1e-5,0 -1e-5,0 -2e-5,0 -42.72989,-16.26831 -90.94101,-18.27531 -135.19677,-5.41003 -1e-5,0 -1e-5,0 -1e-5,0 -46.358008,13.48769 -87.980511,43.23452 -115.88360537,83.12756 z"
         style="fill:#007394;fill-opacity:1;fill-rule:evenodd;stroke:none" />
      <path
         sodipodi:nodetypes="caaaa"
         inkscape:original-d="m -8.0628933,677.40614 c 0,0 64.9920013,-79.93159 111.7286933,-88.69184 37.92623,-7.10883 96.7204,-1.76138 110.57684,34.25158 5.1311,13.33576 -7.59854,37.11945 -21.885,36.85895 -14.43014,-0.26312 -20.73316,-38.01079 -20.73316,-38.01079"
         inkscape:path-effect="#path-effect2936;#path-effect2912"
         id="path2908"
         d="m -12.187584,674.58003 8.2493816,5.65222 C 22.233142,640.90831 60.654822,609.49402 104.79385,591.60702 c 20.28202,-8.1368 42.31387,-13.63216 63.39369,-9.36416 10e-6,0 10e-6,0 2e-5,0 10.53437,2.10826 20.69297,6.6196 28.76406,13.6771 8.06105,7.0464 14.04741,16.70743 15.94575,27.27076 1.35433,7.56613 0.61832,15.65731 -2.96399,22.43219 0,10e-6 -1e-5,10e-6 -1e-5,2e-5 -1.7862,3.3913 -4.257,6.44255 -7.28596,8.79577 -3.02737,2.35258 -6.62099,4.01574 -10.40735,4.67566 -4.48585,0.78544 -9.24639,0.14609 -13.3969,-1.82131 -4.15109,-1.96621 -7.69575,-5.26273 -9.96749,-9.29975 0,0 0,-10e-6 -1e-5,-10e-6 -2.27251,-4.0366 -3.27037,-8.81143 -2.78993,-13.4581 0.48,-4.64672 2.43758,-9.15542 5.53875,-12.70115 -3.19292,3.46334 -5.2942,7.94817 -5.90619,12.65827 -0.61155,4.71015 0.26942,9.6218 2.50784,13.85527 10e-6,0 10e-6,10e-6 10e-6,10e-6 2.23921,4.23304 5.8214,7.76042 10.12838,9.9419 4.30757,2.18029 9.30594,2.9975 14.12068,2.28581 1e-5,0 2e-5,0 2e-5,0 4.05912,-0.60298 7.94245,-2.26666 11.25303,-4.70749 3.30918,-2.44034 6.04508,-5.6294 8.05362,-9.22024 0,0 0,-10e-6 1e-5,-10e-6 4.00548,-7.1863 5.07108,-15.78012 3.80603,-23.88652 -1.75535,-11.29779 -7.79117,-21.75292 -16.23457,-29.50048 -8.43634,-7.73911 -19.08722,-12.85913 -30.23494,-15.36848 -1e-5,0 -2e-5,0 -2e-5,0 -22.28115,-4.96652 -45.55871,-0.0206 -66.58063,7.9495 -45.783161,17.17921 -86.34274,48.46137 -114.725334,88.75845 z"
         style="fill:#000000;fill-rule:evenodd;stroke:none" />
      <path
         sodipodi:nodetypes="cccc"
         id="path2880"
         d="M 0.49167554,653.51483 C 23.26998,636.05305 76.844214,727.19828 105.27907,686.92393 c -13.820348,33.28102 -81.582343,48.5261 -105.58592,31.53872 -0.52845787,-24.02993 -0.0696616,-38.096 0.79852554,-64.94782 z"
         style="fill:#000000;fill-rule:evenodd;stroke:none" />
      <path
         sodipodi:nodetypes="caaaaaa"
         inkscape:original-d="M -15.769977,689.79039 C 82.17435,472.98652 177.84401,560.15937 288.14381,529.06465 c 117.07934,-33.00595 302.09521,23.66967 364.20214,-23.0106 11.12314,-8.36028 18.58265,-27.61814 12.12588,-39.94408 -9.73451,-18.58313 -42.59391,-31.09236 -59.91612,-19.25875 -9.63791,6.5841 -10.44226,26.74682 -2.13986,34.95107 6.95247,6.87027 29.24477,-2.13987 29.24477,-2.13987"
         inkscape:path-effect="#path-effect2932;#path-effect2924"
         id="path2818"
         d="m 635.30894,482.42287 c -4.23116,5.44718 -10.64586,8.83781 -17.46736,9.28843 -6.82429,0.41257 -13.55292,-2.14987 -18.34957,-6.93553 -5.52736,-5.66672 -7.94085,-13.57572 -7.11318,-21.11322 0.83817,-7.47362 4.43254,-14.26006 9.5138,-19.37427 10e-6,-10e-6 2e-5,-3e-5 4e-5,-4e-5 5.05556,-5.13269 11.52169,-8.74878 18.48301,-10.38686 2e-5,-1e-5 4e-5,-1e-5 5e-5,-2e-5 6.96184,-1.63238 14.30494,-1.26751 21.03128,1.00147 6.72406,2.27353 12.73434,6.41116 17.24879,11.82239 4.5106,5.41358 7.46973,12.0239 8.5251,18.94037 0,2e-5 1e-5,4e-5 1e-5,5e-5 1.1333,7.60364 0.0293,15.30236 -2.48081,22.33798 -2.50163,7.02795 -6.27396,13.43296 -10.5359,19.32831 -19.23766,26.62047 -48.74605,44.39955 -80.00214,53.03379 -2e-5,0 -3e-5,10e-6 -5e-5,10e-6 -31.25231,8.6362 -64.20398,8.72689 -96.16635,4.6273 -31.98664,-4.10338 -63.2368,-12.30439 -94.53366,-20.16814 -31.25067,-7.85918 -62.79049,-15.44033 -95.13254,-18.25354 -10e-6,0 -2e-5,0 -3e-5,0 -60.66516,-5.25401 -122.94218,6.92232 -177.48821,34.93039 C 56.298834,589.5167 9.7418983,633.23296 -21.767849,686.32784 l 11.9957435,6.9251 C 19.630565,642.00834 63.835463,599.17959 116.0708,571.39027 c 52.23035,-27.79875 112.52479,-40.57502 171.62598,-36.32117 2e-5,10e-6 3e-5,10e-6 5e-5,10e-6 31.53231,2.24052 62.80034,9.29642 94.11851,16.6624 31.35622,7.40564 63.00295,15.19334 95.5267,18.90089 32.51199,3.73352 66.13884,3.08353 98.00437,-6.17974 10e-6,0 2e-5,0 2e-5,0 31.91689,-9.26202 61.79418,-27.98534 81.13595,-55.49151 4.28611,-6.09027 8.08158,-12.77902 10.60156,-20.14492 2.53721,-7.38186 3.5599,-15.48213 2.27158,-23.50725 0,-2e-5 -10e-6,-4e-5 -10e-6,-5e-5 -1.21638,-7.30242 -4.42705,-14.20303 -9.24106,-19.82819 -4.82034,-5.62132 -11.15695,-9.84937 -18.20301,-12.12906 -7.04951,-2.27286 -14.669,-2.5412 -21.85791,-0.75599 -10e-6,0 -2e-5,0 -3e-5,0 -7.1882,1.79312 -13.79391,5.61294 -18.92355,10.95849 -2e-5,1e-5 -3e-5,3e-5 -4e-5,4e-5 -5.16587,5.32468 -8.74736,12.34972 -9.52064,20.03578 0,0 0,1e-5 0,2e-5 -0.76083,7.76319 1.83356,15.80896 7.54093,21.53337 4.9593,4.82866 11.81785,7.3289 18.70916,6.83102 6.88838,-0.53805 13.28322,-4.03534 17.44958,-9.53154 z"
         style="fill:#000000;stroke:none" />
      <path
         transform="matrix(0.40000356,0,0,0.42857526,44.394778,386.42077)"
         d="m 543.98254,301.31802 c 0,8.89232 -7.72355,16.10097 -17.25103,16.10097 -9.52749,0 -17.25104,-7.20865 -17.25104,-16.10097 0,-8.89231 7.72355,-16.10096 17.25104,-16.10096 9.52748,0 17.25103,7.20865 17.25103,16.10096 z"
         sodipodi:ry="16.100962"
         sodipodi:rx="17.251032"
         sodipodi:cy="301.31802"
         sodipodi:cx="526.73151"
         id="path3830-4"
         style="fill:#000000;fill-opacity:1;fill-rule:nonzero;stroke:none"
         sodipodi:type="arc" />
      <path
         transform="matrix(0.2333379,0,0,0.2500049,154.46513,441.97755)"
         d="m 543.98254,301.31802 c 0,8.89232 -7.72355,16.10097 -17.25103,16.10097 -9.52749,0 -17.25104,-7.20865 -17.25104,-16.10097 0,-8.89231 7.72355,-16.10096 17.25104,-16.10096 9.52748,0 17.25103,7.20865 17.25103,16.10096 z"
         sodipodi:ry="16.100962"
         sodipodi:rx="17.251032"
         sodipodi:cy="301.31802"
         sodipodi:cx="526.73151"
         id="path3830-4-7"
         style="fill:#000000;fill-opacity:1;fill-rule:nonzero;stroke:none"
         sodipodi:type="arc" />
      <path
         transform="matrix(0.10000537,0,0,0.10714861,241.80262,488.39726)"
         d="m 543.98254,301.31802 c 0,8.89232 -7.72355,16.10097 -17.25103,16.10097 -9.52749,0 -17.25104,-7.20865 -17.25104,-16.10097 0,-8.89231 7.72355,-16.10096 17.25104,-16.10096 9.52748,0 17.25103,7.20865 17.25103,16.10096 z"
         sodipodi:ry="16.100962"
         sodipodi:rx="17.251032"
         sodipodi:cy="301.31802"
         sodipodi:cx="526.73151"
         id="path3830-4-7-8"
         style="fill:#000000;fill-opacity:1;fill-rule:nonzero;stroke:none"
         sodipodi:type="arc" />
      <path
         transform="translate(0,308.27218)"
         sodipodi:nodetypes="caaaa"
         inkscape:original-d="m 186.31003,231.01203 c 0,0 45.00902,-19.98687 60.95327,-37.80163 5.94652,-6.64413 15.11576,-16.00046 11.50062,-24.15131 -4.86812,-10.97586 -26.99936,-19.72501 -34.50186,-10.35055 -4.39731,5.49448 10.35056,18.40099 10.35056,18.40099"
         inkscape:path-effect="#path-effect2974;#path-effect2976"
         id="path2972"
         d="m 185.32054,227.13635 1.97898,7.75136 c 24.19858,-6.75247 46.00153,-21.01405 61.74082,-40.14828 2.95497,-3.57887 5.75234,-7.42645 7.88559,-11.70718 2.14208,-4.28439 3.52784,-9.04999 3.56128,-13.93053 0,0 0,-1e-5 0,-1e-5 0.022,-4.68448 -1.29439,-9.36026 -3.87272,-13.25048 -2.58425,-3.8934 -6.44334,-6.90225 -10.86103,-8.31329 -4.42457,-1.4085 -9.33691,-1.12418 -13.46362,0.88527 0,0 0,0 0,0 -4.12878,2.01653 -7.33719,5.77173 -8.5407,10.13227 -1.07797,3.931 -0.48575,8.23724 1.55214,11.68009 2.03951,3.44194 5.49217,5.96641 9.31134,6.87396 -3.77399,-1.08016 -7.03625,-3.73731 -8.84481,-7.13639 -1.81017,-3.39816 -2.1592,-7.52123 -0.99283,-11.11154 1.28746,-3.98731 4.43471,-7.28831 8.21339,-8.9274 0,0 0,0 1e-5,-1e-5 3.78262,-1.64703 8.21348,-1.6649 12.03536,-0.25849 3.83018,1.40435 7.0951,4.24057 9.18196,7.70478 2.09332,3.46827 3.02843,7.60695 2.83493,11.63597 0,1e-5 0,1e-5 0,1e-5 -0.19155,4.21508 -1.64479,8.35253 -3.71951,12.13036 -2.08379,3.78196 -4.85524,7.21624 -7.83486,10.53455 -15.93081,17.67281 -37.31672,30.19583 -60.16572,35.45498 z"
         style="fill:#000000;fill-rule:evenodd;stroke:none" />
    </g>
  </g>
</svg>
